…
### Tidying the Text

(notes)

    ## # A tibble: 3,993 x 2
    ##    word          n
    ##    <chr>     <int>
    ##  1 migrants    162
    ##  2 european     66
    ##  3 people       60
    ##  4 europe       54
    ##  5 refugees     53
    ##  6 mexico       52
    ##  7 border       51
    ##  8 united       51
    ##  9 migrant      50
    ## 10 thousands    49
    ## # … with 3,983 more rows

    ## # A tibble: 9,793 x 3
    ##    pub_date             line word        
    ##    <dttm>              <int> <chr>       
    ##  1 2020-11-06 14:57:42     1 paris       
    ##  2 2020-11-06 14:57:42     1 unknown     
    ##  3 2020-11-06 14:57:42     1 police      
    ##  4 2020-11-06 14:57:42     1 intelligence
    ##  5 2020-11-06 14:57:42     1 officials   
    ##  6 2020-11-06 14:57:42     1 pledged     
    ##  7 2020-11-06 14:57:42     1 allegiance  
    ##  8 2020-11-06 14:57:42     1 terrorist   
    ##  9 2020-11-06 14:57:42     1 claimed     
    ## 10 2020-11-06 14:57:42     1 stated      
    ## # … with 9,783 more rows
…
